{
    "/js/app.js": "/js/app.js",
    "/css/app.css": "/css/app.css",
    "/js/app-admin.js": "/js/app-admin.js",
    "/css/frontend.css": "/css/frontend.css",
    "/js/mixed.js": "/js/mixed.js",
    "/css/vendor.css": "/css/vendor.css"
}
