{
    "name": "Order",
    "alias": "order",
    "description": "",
    "keywords": [],
    "active": 1,
    "order": 0,
    "providers": [
        "Modules\\Order\\Providers\\OrderServiceProvider"
    ],
    "aliases": {},
    "files": [

    ],
    "requires": []
}
