{
    "name": "ProductRating",
    "alias": "productrating",
    "description": "",
    "keywords": [],
    "active": 1,
    "order": 0,
    "providers": [
        "Modules\\ProductRating\\Providers\\ProductRatingServiceProvider"
    ],
    "aliases": {},
    "files": [

    ],
    "requires": []
}
